<?xml version="1.0" encoding="utf-8"?>
<!-- Generator: Adobe Illustrator 16.0.0, SVG Export Plug-In . SVG Version: 6.00 Build 0)  -->
<!DOCTYPE svg PUBLIC "-//W3C//DTD SVG 1.1//EN" "http://www.w3.org/Graphics/SVG/1.1/DTD/svg11.dtd">
<svg version="1.1" id="Layer_1" xmlns="http://www.w3.org/2000/svg" xmlns:xlink="http://www.w3.org/1999/xlink" x="0px" y="0px"
	 width="78px" height="574.1px" viewBox="0 0 78 574.1" enable-background="new 0 0 78 574.1" xml:space="preserve">
<g>
	<path fill-rule="evenodd" clip-rule="evenodd" fill="#4C350D" d="M39,160.3c2.4,0,4.8,0.4,7,1V63c-2.2,0.6-4.6,1-7,1s-4.8-0.4-7-1
		v98.3C34.2,160.7,36.6,160.3,39,160.3z"/>
	<path fill-rule="evenodd" clip-rule="evenodd" fill="#4C350D" d="M39,306.6c2.4,0,4.8,0.4,7,1v-98.3c-2.2,0.6-4.6,1-7,1
		s-4.8-0.4-7-1v98.3C34.2,307,36.6,306.6,39,306.6z"/>
	<g>
		<path fill-rule="evenodd" clip-rule="evenodd" fill="#4C350D" d="M39,502.9c-2.4,0-4.8-0.4-7-1v66c0,3.4,3.1,6.2,7,6.2
			s7-2.8,7-6.2v-66C43.8,502.5,41.4,502.9,39,502.9z"/>
		<path fill-rule="evenodd" clip-rule="evenodd" fill="#4C350D" d="M39,452.9c2.4,0,4.8,0.4,7,1v-98.3c-2.2,0.6-4.6,1-7,1
			s-4.8-0.4-7-1v98.3C34.2,453.3,36.6,452.9,39,452.9z"/>
	</g>
	<g>
		<path fill="#4C350D" d="M39,14c13.8,0,25,11.2,25,25S52.8,64,39,64S14,52.8,14,39S25.2,14,39,14 M39,0C17.5,0,0,17.5,0,39
			s17.5,39,39,39s39-17.5,39-39S60.5,0,39,0L39,0z"/>
	</g>
	<g>
		<path fill="#4C350D" d="M39,160.3c13.8,0,25,11.2,25,25s-11.2,25-25,25s-25-11.2-25-25S25.2,160.3,39,160.3 M39,146.3
			c-21.5,0-39,17.5-39,39s17.5,39,39,39s39-17.5,39-39S60.5,146.3,39,146.3L39,146.3z"/>
	</g>
	<g>
		<path fill="#4C350D" d="M39,306.6c13.8,0,25,11.2,25,25c0,13.8-11.2,25-25,25s-25-11.2-25-25C14,317.8,25.2,306.6,39,306.6
			 M39,292.6c-21.5,0-39,17.5-39,39c0,21.5,17.5,39,39,39s39-17.5,39-39C78,310.1,60.5,292.6,39,292.6L39,292.6z"/>
	</g>
	<g>
		<path fill="#4C350D" d="M39,452.9c13.8,0,25,11.2,25,25c0,13.8-11.2,25-25,25s-25-11.2-25-25C14,464.1,25.2,452.9,39,452.9
			 M39,438.9c-21.5,0-39,17.5-39,39s17.5,39,39,39s39-17.5,39-39S60.5,438.9,39,438.9L39,438.9z"/>
	</g>
</g>
</svg>
