<?xml version="1.0" encoding="utf-8"?>
<!-- Generator: Adobe Illustrator 16.0.0, SVG Export Plug-In . SVG Version: 6.00 Build 0)  -->
<!DOCTYPE svg PUBLIC "-//W3C//DTD SVG 1.1//EN" "http://www.w3.org/Graphics/SVG/1.1/DTD/svg11.dtd">
<svg version="1.1" id="Layer_1" xmlns="http://www.w3.org/2000/svg" xmlns:xlink="http://www.w3.org/1999/xlink" x="0px" y="0px"
	 width="273.8px" height="79.6px" viewBox="0 0 273.8 79.6" enable-background="new 0 0 273.8 79.6" xml:space="preserve">
<g>
	<g>
		<path fill-rule="evenodd" clip-rule="evenodd" fill="#6E3B17" d="M266.4,0H7.4C3.3,0,0,3.5,0,7.8v64c0,4.3,3.3,7.8,7.4,7.8h259
			c4.1,0,7.4-3.5,7.4-7.8v-64C273.8,3.5,270.5,0,266.4,0z"/>
		<path fill-rule="evenodd" clip-rule="evenodd" fill="#A46F44" d="M263.8,2.9H10c-4,0-7.3,3.2-7.3,7.2v59.4c0,4,3.2,7.3,7.3,7.3
			h253.8c4,0,7.2-3.2,7.2-7.3V10.1C271,6.1,267.8,2.9,263.8,2.9z"/>
		<path fill-rule="evenodd" clip-rule="evenodd" fill="#8E592D" d="M261.6,4.9H12.2c-3.9,0-7.1,3.1-7.1,6.8v56.1
			c0,3.8,3.2,6.8,7.1,6.8h249.4c3.9,0,7.1-3.1,7.1-6.8V11.8C268.7,8,265.5,4.9,261.6,4.9z"/>
		<path fill-rule="evenodd" clip-rule="evenodd" fill="#83461D" d="M8.3,49.6v16.1c0,3.5,3.1,6.3,7,6.3h243.3c3.8,0,7-2.8,7-6.3
			V49.6H8.3z"/>
		<path fill-rule="evenodd" clip-rule="evenodd" fill="#977E5A" d="M244.6,25.8h-13.8c-4.6,0-8.3,3.7-8.3,8.3v13.8
			c0,4.6,3.7,8.3,8.3,8.3h13.8c4.6,0,8.3-3.7,8.3-8.3V34.1C252.9,29.5,249.2,25.8,244.6,25.8z"/>
		<path fill-rule="evenodd" clip-rule="evenodd" fill="#392710" d="M243.7,27.8h-12c-4,0-7.2,3.2-7.2,7.2v12c0,4,3.2,7.3,7.2,7.3h12
			c4,0,7.3-3.2,7.3-7.3V35C250.9,31,247.7,27.8,243.7,27.8z"/>
		<path fill-rule="evenodd" clip-rule="evenodd" fill="#977E5A" d="M46.7,19.7H27.4c-6.4,0-11.6,5.2-11.6,11.6v19.3
			c0,6.4,5.2,11.6,11.6,11.6h19.3c6.4,0,11.6-5.2,11.6-11.6V31.4C58.4,24.9,53.2,19.7,46.7,19.7z"/>
		<path fill-rule="evenodd" clip-rule="evenodd" fill="#392710" d="M45.5,22.5H28.6c-5.6,0-10.1,4.5-10.1,10.1v16.8
			c0,5.6,4.5,10.1,10.1,10.1h16.8c5.6,0,10.1-4.5,10.1-10.1V32.6C55.6,27,51.1,22.5,45.5,22.5z"/>
	</g>
	<g>
		<path fill-rule="evenodd" clip-rule="evenodd" d="M241.6,44.1c-1.4,0-2.8-0.1-4-0.6c-0.4-0.2-0.9-0.4-1.3-0.6
			c-0.8-0.6-0.8-1.3,0-1.9c0.6-0.4,1.3-0.7,2-0.8c1.5-0.3,3-0.4,4.5-0.3c1,0.1,2,0.3,2.9,0.6c0.4,0.2,0.9,0.4,1.2,0.7
			c0.5,0.5,0.5,1,0,1.5c-0.4,0.4-0.9,0.6-1.5,0.8c-1,0.3-2,0.5-3,0.5C242.2,44.1,241.8,44.1,241.6,44.1z"/>
		<path fill-rule="evenodd" clip-rule="evenodd" d="M235,33.1c1.3,0,2.6,0.1,3.8,0.6c0.4,0.2,0.9,0.4,1.2,0.6c0.7,0.5,0.7,1.2,0,1.8
			c-0.5,0.4-1.2,0.6-1.8,0.8c-1.4,0.4-2.8,0.5-4.2,0.4c-1.1-0.1-2.3-0.2-3.3-0.6c-0.5-0.2-1-0.4-1.4-0.8c-0.5-0.5-0.5-1,0-1.4
			c0.5-0.5,1-0.7,1.6-0.9c0.9-0.3,1.9-0.5,2.9-0.5C234.2,33.1,234.6,33.1,235,33.1z"/>
		<path fill-rule="evenodd" clip-rule="evenodd" fill="#FF9600" d="M235.7,45.8c0.2,0.4,0.5,0.7,0.9,0.9c0.7,0.4,1.5,0.6,2.3,0.8
			c1.9,0.4,3.9,0.3,5.8-0.1c0.7-0.2,1.3-0.4,1.9-0.7c0.3-0.2,0.6-0.4,0.7-0.8c0,0.4,0,0.8,0,1.2c0,0.4-0.3,0.6-0.6,0.8
			c-0.5,0.4-1.1,0.6-1.8,0.8c-1.4,0.4-2.8,0.5-4.2,0.4c-1.1-0.1-2.3-0.2-3.4-0.6c-0.4-0.2-0.9-0.4-1.2-0.7c-0.3-0.3-0.5-0.6-0.5-1.1
			C235.7,46.4,235.7,46.1,235.7,45.8z"/>
		<path fill-rule="evenodd" clip-rule="evenodd" fill="#FF9600" d="M240.6,36.5c0,0.4,0,0.8,0,1.2c0,0.3-0.2,0.6-0.4,0.8
			c-0.5,0.4-1,0.6-1.6,0.8c-1,0.3-2,0.5-3,0.5c-1.2,0.1-2.4,0-3.6-0.2c-0.8-0.2-1.6-0.4-2.3-0.8c-0.4-0.3-0.7-0.6-0.8-1.1
			c0-0.3,0-0.7,0-1.1c0.3,0.7,0.9,1,1.6,1.2c0.9,0.4,1.8,0.6,2.8,0.6c0.8,0,1.7,0.1,2.6,0c1.2-0.1,2.4-0.3,3.6-0.8
			c0.1,0,0.1-0.1,0.2-0.1C240,37.3,240.3,37.1,240.6,36.5z"/>
		<path fill-rule="evenodd" clip-rule="evenodd" fill="#FF9600" d="M235.7,43.3c0.2,0.5,0.6,0.8,1,1c0.8,0.4,1.6,0.6,2.5,0.8
			c1.4,0.2,2.9,0.3,4.3,0.1c0.9-0.1,1.9-0.3,2.7-0.7c0.1-0.1,0.3-0.1,0.4-0.2c0.3-0.2,0.6-0.5,0.8-0.9c0,0.4,0,0.8,0,1.2
			c0,0.3-0.2,0.6-0.5,0.8c-0.4,0.3-0.8,0.5-1.2,0.7c-1,0.4-2,0.5-3.1,0.6c-1.1,0.1-2.3,0-3.4-0.2c-0.8-0.1-1.6-0.3-2.4-0.7
			c-0.2-0.1-0.3-0.2-0.5-0.3c-0.4-0.3-0.6-0.7-0.6-1.2C235.7,43.9,235.7,43.6,235.7,43.3z"/>
		<path fill-rule="evenodd" clip-rule="evenodd" fill="#FF9600" d="M228.9,39c0.3,0.6,0.8,0.9,1.4,1.2c0.9,0.4,1.9,0.6,3,0.7
			c0.7,0.1,1.3,0.1,2,0.1c0,0,0.1,0,0.1,0c-0.3,0.4-0.3,0.8-0.3,1.3c0,0-0.1,0-0.1,0c-1.5,0-3-0.1-4.4-0.7c-0.4-0.2-0.8-0.4-1.1-0.6
			s-0.5-0.6-0.5-1.1C228.9,39.6,228.9,39.4,228.9,39z"/>
		<path fill-rule="evenodd" clip-rule="evenodd" fill="#FF9600" d="M228.9,41.5c0.2,0.4,0.6,0.7,1,0.9c0.8,0.4,1.6,0.6,2.5,0.8
			c0.8,0.1,1.7,0.2,2.6,0.2c0,0,0.1,0,0.1,0c0,0.4,0,0.9,0,1.3c0,0,0,0-0.1,0c-1.5,0-3-0.1-4.5-0.7c-0.4-0.2-0.8-0.4-1.2-0.7
			c-0.3-0.3-0.4-0.5-0.4-0.9C228.9,42.1,228.9,41.8,228.9,41.5z"/>
		<path fill-rule="evenodd" clip-rule="evenodd" fill="#FF9600" d="M235,45.9c0,0.4,0,0.8,0,1.3c0,0-0.1,0-0.1,0
			c-1.4,0-2.7-0.1-4-0.5c-0.5-0.2-1-0.4-1.4-0.7c-0.4-0.3-0.6-0.7-0.6-1.2c0-0.3,0-0.5,0-0.8c0.4,0.8,1.2,1.1,2,1.4
			c1.3,0.4,2.6,0.5,3.9,0.5C234.8,45.9,234.9,45.9,235,45.9C235,45.9,235,45.9,235,45.9z"/>
		<g>
			<ellipse fill-rule="evenodd" clip-rule="evenodd" fill="#FF9600" cx="234.7" cy="35.2" rx="5.8" ry="2.2"/>
			<ellipse fill-rule="evenodd" clip-rule="evenodd" fill="#FFD800" cx="234.7" cy="35.2" rx="5.2" ry="2"/>
			<ellipse fill-rule="evenodd" clip-rule="evenodd" fill="#FFB400" cx="234.7" cy="35.2" rx="3.8" ry="1.4"/>
		</g>
		<g>
			<ellipse fill-rule="evenodd" clip-rule="evenodd" fill="#FF9600" cx="241.5" cy="42" rx="5.8" ry="2.2"/>
			<ellipse fill-rule="evenodd" clip-rule="evenodd" fill="#FFD800" cx="241.5" cy="42" rx="5.2" ry="2"/>
			<ellipse fill-rule="evenodd" clip-rule="evenodd" fill="#FFB400" cx="241.5" cy="42" rx="3.8" ry="1.4"/>
		</g>
	</g>
</g>
</svg>
