<?xml version="1.0" encoding="utf-8"?>
<!-- Generator: Adobe Illustrator 16.0.0, SVG Export Plug-In . SVG Version: 6.00 Build 0)  -->
<!DOCTYPE svg PUBLIC "-//W3C//DTD SVG 1.1//EN" "http://www.w3.org/Graphics/SVG/1.1/DTD/svg11.dtd">
<svg version="1.1" id="Layer_1" xmlns="http://www.w3.org/2000/svg" xmlns:xlink="http://www.w3.org/1999/xlink" x="0px" y="0px"
	 width="273.8px" height="79.6px" viewBox="0 0 273.8 79.6" enable-background="new 0 0 273.8 79.6" xml:space="preserve">
<g>
	<path fill-rule="evenodd" clip-rule="evenodd" fill="#984005" d="M266.4,0H7.4C3.3,0,0,3.5,0,7.8v64c0,4.3,3.3,7.8,7.4,7.8h259
		c4.1,0,7.4-3.5,7.4-7.8v-64C273.8,3.5,270.5,0,266.4,0z"/>
	<path fill-rule="evenodd" clip-rule="evenodd" fill="#E19557" d="M263.8,2.9H10c-4,0-7.2,3.2-7.2,7.2v59.4c0,4,3.2,7.2,7.2,7.2
		h253.8c4,0,7.2-3.2,7.2-7.2V10.1C271,6.1,267.8,2.9,263.8,2.9z"/>
	<path fill-rule="evenodd" clip-rule="evenodd" fill="#EA7619" d="M261.6,4.9H12.2c-3.9,0-7.1,3.1-7.1,6.8v56.1
		c0,3.8,3.2,6.8,7.1,6.8h249.4c3.9,0,7.1-3.1,7.1-6.8V11.8C268.7,8,265.5,4.9,261.6,4.9z"/>
	<path fill-rule="evenodd" clip-rule="evenodd" fill="#D05909" d="M8.3,49.6v16.1c0,3.5,3.1,6.3,7,6.3h243.3c3.8,0,7-2.8,7-6.3V49.6
		H8.3z"/>
	<path fill-rule="evenodd" clip-rule="evenodd" fill="#DFB367" d="M244.6,25.8h-13.8c-4.6,0-8.3,3.7-8.3,8.3v13.8
		c0,4.6,3.7,8.3,8.3,8.3h13.8c4.6,0,8.3-3.7,8.3-8.3V34.1C252.9,29.5,249.2,25.8,244.6,25.8z"/>
	<path fill-rule="evenodd" clip-rule="evenodd" fill="#312207" d="M243.7,27.8h-12c-4,0-7.3,3.2-7.3,7.2v12.1c0,4,3.2,7.3,7.3,7.3
		h12c4,0,7.3-3.2,7.3-7.3V35C250.9,31,247.7,27.8,243.7,27.8z"/>
	<path fill-rule="evenodd" clip-rule="evenodd" fill="#DFB367" d="M46.7,19.7H27.4c-6.4,0-11.6,5.2-11.6,11.6v19.3
		c0,6.4,5.2,11.6,11.6,11.6h19.3c6.4,0,11.6-5.2,11.6-11.6V31.4C58.4,24.9,53.2,19.7,46.7,19.7z"/>
	<path fill-rule="evenodd" clip-rule="evenodd" fill="#382709" d="M45.5,22.5H28.6c-5.6,0-10.1,4.5-10.1,10.1v16.8
		c0,5.6,4.5,10.1,10.1,10.1h16.8c5.6,0,10.1-4.5,10.1-10.1V32.6C55.6,27,51.1,22.5,45.5,22.5z"/>
</g>
</svg>
