<?xml version="1.0" encoding="utf-8"?>
<!-- Generator: Adobe Illustrator 16.0.0, SVG Export Plug-In . SVG Version: 6.00 Build 0)  -->
<!DOCTYPE svg PUBLIC "-//W3C//DTD SVG 1.1//EN" "http://www.w3.org/Graphics/SVG/1.1/DTD/svg11.dtd">
<svg version="1.1" id="Layer_1" xmlns="http://www.w3.org/2000/svg" xmlns:xlink="http://www.w3.org/1999/xlink" x="0px" y="0px"
	 width="38.2px" height="38.2px" viewBox="0 0 38.2 38.2" enable-background="new 0 0 38.2 38.2" xml:space="preserve">
<g>
	<circle fill-rule="evenodd" clip-rule="evenodd" fill="#FF9600" cx="19.1" cy="19.1" r="19.1"/>
	<circle fill-rule="evenodd" clip-rule="evenodd" fill="#FFD800" cx="19.1" cy="19.1" r="16.9"/>
	<circle fill-rule="evenodd" clip-rule="evenodd" fill="#FFB400" cx="19.1" cy="19.1" r="12.4"/>
</g>
</svg>
