<?xml version="1.0" encoding="utf-8"?>
<!-- Generator: Adobe Illustrator 16.0.0, SVG Export Plug-In . SVG Version: 6.00 Build 0)  -->
<!DOCTYPE svg PUBLIC "-//W3C//DTD SVG 1.1//EN" "http://www.w3.org/Graphics/SVG/1.1/DTD/svg11.dtd">
<svg version="1.1" id="Layer_1" xmlns="http://www.w3.org/2000/svg" xmlns:xlink="http://www.w3.org/1999/xlink" x="0px" y="0px"
	 width="188.9px" height="39.8px" viewBox="0 0 188.9 39.8" enable-background="new 0 0 188.9 39.8" xml:space="preserve">
<g>
	<path fill-rule="evenodd" clip-rule="evenodd" fill="#EA7619" d="M178.8,0H7.2C3.2,0,0,3.2,0,7.2v25.4c0,4,3.2,7.2,7.2,7.2h171.6
		c5.6,0,10.1-3.2,10.1-7.2V7.2C188.9,3.2,184.4,0,178.8,0z"/>
	<path fill-rule="evenodd" clip-rule="evenodd" fill="#D05909" d="M3,22v8.7C3,34.2,6,37,9.8,37h166.1c5.3,0,9.6-2.9,9.6-6.4V22H3z"
		/>
	<path fill-rule="evenodd" clip-rule="evenodd" fill="#803707" d="M182.7,21.4c-1-2.3-2.3-3.9-2.3-3.9s2.7-2.4,2.4-3.8
		c-0.4-1.4-2.7-4.9-7.5-4.4s-5.3,2.5-5.3,2.5s0.1-2.1-2.9-2.1h-9.6c-0.5,0-1.1,0.5-1.1,0.5s-1.2-0.5-2.8-0.8c-1.6-0.2-2.9-0.2-3.4,0
		c-0.5,0.2-1.1,0.8-1.1,0.8s-0.8-0.6-2-0.6c-1.2,0-3.1,0-3.5,0.2c-0.4,0.2-0.9,0.5-0.9,0.5s-0.3-0.8-2.2-0.9s-7.5,0.1-8,0.2
		s-1.1,0.6-1.1,0.6s-1.3-1-1.8-1h-4.8c-0.2,0-1.4,1.5-1.4,1.5s-0.9-1.3-2.4-1.4c-1.5-0.1-3.9,0-4.3,0.2s-1.1,0.8-1.1,0.8
		s-1-1.2-2.6-1.2c-1.6,0-7.6,0.1-7.9,0.3c-0.2,0.2-1.2,0.6-1.2,0.6s-0.7-0.5-1.9-0.6c-1.2-0.1-2.8-0.4-3.3-0.1
		c-0.5,0.2-1.2,0.7-1.2,0.7s-1.1-0.7-1.8-0.7c-0.7,0-5,0.9-5,0.9s-0.3-0.5-1.5-0.6c-1.2-0.1-7.2,0-7.9,0c-0.6,0-1.4,0.4-1.4,0.4
		s-0.8-0.9-1.8-1c-1-0.1-5,0-5.2,0.2s-0.7,0.6-0.7,0.6s-0.4-0.4-1.6-0.4c-1.3-0.1-3.9-0.2-4.3-0.1c-0.5,0.1-1.1,0.7-1.1,0.7
		s-0.9-0.6-1.5-0.6c-0.7,0-3.9-0.1-4.3,0c-0.4,0.1-1.6,0.9-1.6,0.9s-2.7-1.9-5.8-1c-3.1,0.9-5.2,2.7-6.7,6.9l-1.3-5.5
		c0,0-0.2-1.5-2.3-1.5c-2.1,0-5.9,0-5.9,0s-2,1-2,2.1s-3.6,15.1-3.6,15.1s-0.7,3.3,2.5,3.3s4.7,0.2,5.3-0.2c0.6-0.4,1.1-0.9,1.1-0.9
		s-0.2,0.8,2.7,0.8s4.1,0,4.5-0.3c0.5-0.2,1.1-1.6,1.1-1.6s1.4,2.6,5.2,2.4c3.8-0.2,5-1.4,5-1.4s0.1,0.9,2.8,1.1
		c2.6,0.2,3.7,0.2,4.2,0c0.5-0.2,0.8-0.5,0.8-0.5s0.4,0.6,1.4,0.7c0.9,0.1,4.1,0.1,4.4-0.1s0.5-0.7,0.5-0.7s0.6,0.4,1.6,0.6
		c1,0.2,5,0.2,5.3,0.1c0.4-0.1,0.9-0.6,0.9-0.6s1.7,0.6,2.8,0.6c1.1,0,7.4,0.1,8.1,0c0.7-0.1,1.7-0.9,1.7-2.1c0-1.2,0.1-4.6-0.2-5.2
		c-0.4-0.6-0.4-0.7-0.4-0.7l0.4-1.5c0,0,1.3,5.8,1.7,7.1s0.5,2.3,2,2.4c1.5,0.1,5.1,0.5,5.8-0.6s2.2-7.6,2.2-7.6s-0.1,6.3,0.1,6.8
		c0.2,0.5,0.5,1.7,2.5,1.7s7.5,0,8.3-0.2c0.8-0.2,1.3-1,1.3-1s0.5,0.7,2.3,0.8c1.8,0.1,3.4,0.2,4.2-0.3s1.5-2.3,1.5-2.3
		s-0.4,2.3,2.1,2.7s4.4,0.3,4.7-0.1c0.3-0.4,0.6-0.7,0.6-0.7s0.8,0.9,1.9,1s8.1,0.1,8.6,0c0.5-0.1,1.2-0.7,1.2-0.7s1,0.6,1.8,0.6
		s3.4,0.1,3.9,0c0.5-0.1,1.2-0.9,1.2-0.9s0.1,0.7,1.5,0.7s3.9,0,4.5-0.1c0.6-0.1,1.1-1.2,1.1-2.6s0.2-8.4,0.2-8.4s0.3,0.4,0.8,0.4
		s0.6,0,0.6,0v9.1c0,0-0.1,1.6,2.1,1.8c2.2,0.2,4.7,0.3,5.2,0c0.5-0.3,1.4-0.9,1.5-2.8c0.1-1.9,0-8.2,0-8.2s0.7,0,1.1-0.2
		c0.4-0.2,0.8-0.5,0.8-0.5s0.2,1,0.6,1.6s0.8,1.1,0.8,1.1s-2.4,1.5-2.5,2.6c-0.1,1.1,0.4,4.1,4.8,5.7c4.4,1.6,7.2,0.6,8.5-1.1
		C182.5,25.9,183.7,23.6,182.7,21.4z M57,20.2c0,0-0.5-0.5-1.4-0.3c-0.8,0.2-1.7,1.1-1.8,0.6s-0.4-1.9,0.5-1.6s1.8,0.6,2.7-0.4V20.2
		z"/>
	<path fill-rule="evenodd" clip-rule="evenodd" fill="#E3E3E3" d="M36,11.6l-3.6,15.8H37l0.5-3.2H40l0.6,2.7h4.7L42,11.6H36z
		 M38,20.1l0.9-4.3l0.8,4.3H38z M51.9,17.4c0.2-0.3,0.5-0.6,0.8-0.8c0.3-0.2,0.7-0.3,1.1-0.3c0.6,0,1.2,0.2,1.8,0.6l1.8-4.1
		c0-0.2-0.2-0.3-0.4-0.5c-0.2-0.1-0.5-0.3-0.9-0.4c-0.4-0.1-0.8-0.2-1.2-0.2c-0.4-0.1-0.9-0.1-1.4-0.1c-1,0-1.9,0.2-2.7,0.7
		c-0.8,0.5-1.5,1.1-2,1.9c-0.5,0.8-1,1.7-1.3,2.7c-0.3,1-0.4,2.1-0.4,3.2c0,4.9,2,7.4,5.9,7.4c1.5,0,2.9-0.4,4.2-1.3l-1.2-4
		c-0.6,0.5-1.3,0.7-2.2,0.7c-0.4,0-0.8-0.1-1.1-0.2c-0.3-0.2-0.6-0.4-0.8-0.6c-0.2-0.3-0.4-0.6-0.5-0.9s-0.2-0.8-0.2-1.2
		c0-0.5,0.1-0.9,0.2-1.4S51.7,17.8,51.9,17.4z M66.8,17.8h-3.2v-6h-4.2V27l4.6,0.4V22h2.3v5.4H71V11.6h-4.2V17.8z M73.5,27.4h5V11.6
		h-5V27.4z M85.8,21.4h3.6v-3.2h-3.8l-0.1-2l4.1-0.3v-4h-8.2v15.5h8.6v-4.2h-4.1V21.4z M97.7,18.6l-1.6-7l-3.9,0.5l3.6,15.3h4.1
		l3.3-15.5L99,11.6L97.7,18.6z M110.1,21.4h3.6v-3.2h-3.8l-0.1-2l4.1-0.3v-4h-8.2v15.5h8.6v-4.2h-4.1V21.4z M123.1,17.2l-2-5.5
		l-3.9,0.3v15.1h4v-5.8l2.2,3.5l2.7-4.6v7.2h3.6V11.6h-4.1L123.1,17.2z M137.4,21.4h3.6v-3.2h-3.8l-0.1-2l4.1-0.3v-4h-8.2v15.5h8.6
		v-4.2h-4.1V21.4z M150.8,18.5l-2.8-6.4h-3.8v15.3h4.1l-0.4-5.4l3,5.1l3.7,0.2V11.9l-3.8-0.2V18.5z M157.7,16.5h3.1v10.9h4.1V16.2
		h2.9v-4.1h-10.5L157.7,16.5z M179.1,19.9c-0.2-0.2-0.6-0.5-1-0.8c-0.4-0.3-1-0.7-1.7-1.1c-1-0.6-1.5-1.1-1.5-1.6
		c0-0.7,0.3-1.1,1-1.1c0.2,0,0.4,0,0.6,0.1c0.2,0.1,0.4,0.2,0.6,0.3c0.2,0.1,0.4,0.3,0.6,0.5c0.2,0.2,0.3,0.4,0.4,0.6l2.4-2.7
		c-0.2-0.4-0.5-0.7-0.8-1c-0.3-0.3-0.7-0.6-1.2-0.8s-0.9-0.4-1.4-0.5c-0.5-0.1-1-0.2-1.5-0.2c-0.7,0-1.3,0.1-1.8,0.3s-1,0.5-1.4,0.9
		c-0.4,0.4-0.7,0.9-0.9,1.4c-0.2,0.5-0.3,1.1-0.3,1.8c0,0.5,0.1,0.9,0.2,1.4c0.2,0.5,0.4,0.9,0.7,1.3s0.6,0.8,1,1.2
		c0.4,0.4,0.9,0.7,1.3,1c0.2,0.1,0.5,0.3,0.7,0.4c0.2,0.1,0.5,0.3,0.7,0.4c0.2,0.1,0.3,0.3,0.5,0.4s0.2,0.3,0.2,0.4
		c0,0.6-0.2,0.9-0.6,0.9c-0.2,0-0.4-0.1-0.6-0.2c-0.2-0.1-0.4-0.3-0.7-0.4c-0.2-0.2-0.4-0.4-0.6-0.6c-0.2-0.2-0.4-0.4-0.5-0.6
		l-3.4,1.8c1.6,2.5,3.9,3.8,6.9,3.8c0.4,0,0.9-0.1,1.3-0.3c0.4-0.2,0.9-0.5,1.2-0.9s0.7-0.8,0.9-1.2c0.2-0.5,0.3-0.9,0.3-1.3
		C180.6,22.1,180.1,20.9,179.1,19.9z"/>
	<polygon fill-rule="evenodd" clip-rule="evenodd" fill="#803707" points="27.2,14.5 28.9,11.7 25.6,8.9 25.5,5.6 21.8,5.9 
		19.9,3.1 16.7,4.6 13.5,2.7 11.8,5.8 8,6 8,9.5 4.9,11.2 6.5,14.4 4.8,17.8 8.3,19.6 7.9,23.3 10.6,23.4 7,29.6 13.9,36.8 
		16.9,28.5 20.4,37 26.3,29.8 23.3,23.1 26,23.2 25.7,19.9 28.9,17.8 	"/>
	<path fill-rule="evenodd" clip-rule="evenodd" fill="#E3E3E3" d="M25.3,14.7l1.2-2.6l-2.4-1.7l-0.3-2.9l-2.8-0.1L19.4,5l-2.6,1.1
		L14,4.8l-1.4,2.5l-3,0.3l0,2.7L7,11.9l1.4,2.8l-1.3,2.4l2.5,1.6l0.1,2.9l3,0.3l1.5,2.5l2.8-1.3l2.4,1.3l1.7-2.5l2.8-0.3l0.3-2.7
		l2.4-1.7L25.3,14.7z M16.9,20.2c-3.1,0-5.6-2.5-5.6-5.6S13.8,9,16.9,9c3.1,0,5.6,2.5,5.6,5.6S20,20.2,16.9,20.2z"/>
	<polygon fill-rule="evenodd" clip-rule="evenodd" fill="#E3E3E3" points="13.9,25.5 12.6,23.6 9.2,29.7 13.4,33.9 16.6,24.1 	"/>
	<polygon fill-rule="evenodd" clip-rule="evenodd" fill="#E3E3E3" points="21.1,23.4 19.7,25.4 17.2,24.3 20.3,33.8 24.5,29.6 	"/>
	<path fill-rule="evenodd" clip-rule="evenodd" fill="#E3E3E3" d="M16.9,9.9c-2.6,0-4.7,2.1-4.7,4.7c0,2.6,2.1,4.7,4.7,4.7
		c2.6,0,4.7-2.1,4.7-4.7C21.6,12,19.5,9.9,16.9,9.9z M16.9,18.4c-2.1,0-3.8-1.7-3.8-3.8c0-2.1,1.7-3.8,3.8-3.8
		c2.1,0,3.8,1.7,3.8,3.8C20.7,16.7,19,18.4,16.9,18.4z"/>
</g>
</svg>
