<?xml version="1.0" encoding="utf-8"?>
<!-- Generator: Adobe Illustrator 16.0.0, SVG Export Plug-In . SVG Version: 6.00 Build 0)  -->
<!DOCTYPE svg PUBLIC "-//W3C//DTD SVG 1.1//EN" "http://www.w3.org/Graphics/SVG/1.1/DTD/svg11.dtd">
<svg version="1.1" id="Layer_1" xmlns="http://www.w3.org/2000/svg" xmlns:xlink="http://www.w3.org/1999/xlink" x="0px" y="0px"
	 width="116.9px" height="39.8px" viewBox="0 0 116.9 39.8" enable-background="new 0 0 116.9 39.8" xml:space="preserve">
<g>
	<path fill-rule="evenodd" clip-rule="evenodd" fill="#EA7619" d="M110.8,0H7.2C3.2,0,0,3.2,0,7.2v25.4c0,4,3.2,7.2,7.2,7.2h103.6
		c3.4,0,6.1-3.2,6.1-7.2V7.2C116.9,3.2,114.2,0,110.8,0z"/>
	<path fill-rule="evenodd" clip-rule="evenodd" fill="#D05909" d="M3.2,22v8.7c0,3.5,3.1,6.4,6.8,6.4h97c3.1,0,5.7-2.9,5.7-6.4V22
		H3.2z"/>
	<path fill-rule="evenodd" clip-rule="evenodd" fill="#803707" d="M104.5,21c0-0.5-0.4-0.9-0.4-0.9s0-1.3,0.1-2.4
		c0.1-1.1-0.2-2.1-0.2-2.1s0.3-0.8,0.3-1.5s0-4.2,0-4.2s0.1-1.9-2.3-1.9s-8.5,0-8.5,0s-1.8,0.4-2,2.7c0,0-1.3-2.3-5.7-2.8
		c-4.4-0.5-6.2,0.2-6.5,0.4c-0.3,0.2-0.9,1.4-0.9,2c0,0-2.4-3.1-5.5-2.8c-3.1,0.3-4.8,2.3-4.8,2.3s-0.6-1.6-2.9-1.6
		c-2.3,0-9.9,0-9.9,0s-1.1,0.1-1.9,1.2c0,0-2.1-1.9-5.9-1.8c-3.8,0.1-5.6,3.1-6.1,5.7C41,16,42.9,19,42.9,19s-2.5,0.9-2.6,2.6
		c-0.1,1.7,1.2,4.3,4.9,5.8c3.7,1.5,6.9,0.8,8.5-1.4s2.1-4.3,1.2-6.6s-1.4-2.6-1.4-2.6v-1.4c0,0,0.1,0.8,1.1,1.4c1,0.5,2,0.4,2,0.4
		v8.6c0,0,0.1,2.4,2.5,2.4c2.4,0,4.2,0,4.2,0s2-0.6,2-2.4c0-1.8,0-5,0-5s0.9,5.7,5.1,6.9c4.2,1.2,7.4-0.1,8.7-1.7c0,0,0,2.4,2.6,2.4
		c2.6,0,4-0.3,4.3-0.4c0.4-0.1,0.6-0.4,0.6-0.4s0.5,0.8,2.1,0.6c1.6-0.2,3.4-0.6,3.4-0.6s1.2,0.9,2.4,0.9s8.3-0.1,8.6-0.3
		c0.3-0.2,1.7-0.2,1.7-2.9S104.5,21.6,104.5,21z"/>
	<path fill-rule="evenodd" clip-rule="evenodd" fill="#E3E3E3" d="M50.7,17.6c-0.4-0.3-1-0.7-1.7-1.1c-1-0.6-1.5-1.1-1.5-1.6
		c0-0.7,0.3-1.1,1-1.1c0.2,0,0.4,0,0.6,0.1s0.4,0.2,0.6,0.3c0.2,0.1,0.4,0.3,0.6,0.5s0.3,0.4,0.4,0.6l2.4-2.7
		c-0.2-0.4-0.5-0.7-0.8-1c-0.3-0.3-0.7-0.6-1.2-0.8s-0.9-0.4-1.4-0.5c-0.5-0.1-1-0.2-1.5-0.2c-0.7,0-1.3,0.1-1.8,0.3
		c-0.6,0.2-1,0.5-1.4,0.9c-0.4,0.4-0.7,0.9-0.9,1.4c-0.2,0.5-0.3,1.1-0.3,1.8c0,0.5,0.1,0.9,0.2,1.4c0.2,0.5,0.4,0.9,0.7,1.3
		c0.3,0.4,0.6,0.8,1,1.2c0.4,0.4,0.9,0.7,1.3,1c0.2,0.1,0.5,0.3,0.7,0.4c0.2,0.1,0.5,0.3,0.7,0.4c0.2,0.1,0.3,0.3,0.5,0.4
		C49,21,49,21.1,49,21.3c0,0.6-0.2,0.9-0.6,0.9c-0.2,0-0.4-0.1-0.6-0.2c-0.2-0.1-0.4-0.3-0.7-0.4s-0.4-0.4-0.6-0.6
		c-0.2-0.2-0.4-0.4-0.5-0.6l-3.4,1.8c1.6,2.5,3.9,3.8,6.9,3.8c0.4,0,0.9-0.1,1.3-0.3c0.4-0.2,0.9-0.5,1.2-0.9
		c0.4-0.4,0.7-0.8,0.9-1.2c0.2-0.5,0.3-0.9,0.3-1.3c0-1.5-0.5-2.7-1.5-3.7C51.5,18.2,51.1,17.9,50.7,17.6z M55.8,15.1h3.1v10.9H63
		V14.8h2.9v-4.1H55.4L55.8,15.1z M77.2,12.8c-0.5-0.8-1.1-1.5-1.8-2c-0.7-0.5-1.5-0.7-2.4-0.7c-0.9,0-1.7,0.2-2.4,0.6
		s-1.3,0.9-1.7,1.5c-0.5,0.7-0.8,1.4-1.1,2.4c-0.2,0.9-0.4,1.9-0.4,3c0,2.7,0.5,4.8,1.5,6.2c1,1.4,2.5,2.1,4.4,2.1
		c0.9,0,1.7-0.2,2.4-0.5s1.3-0.7,1.7-1.3s0.8-1.2,1.1-2c0.2-0.8,0.4-1.7,0.4-2.7c0-1.3-0.1-2.5-0.4-3.7
		C78.1,14.7,77.7,13.7,77.2,12.8z M74.7,19.8c-0.1,0.4-0.2,0.7-0.3,1s-0.3,0.5-0.5,0.7c-0.2,0.2-0.4,0.3-0.7,0.3
		c-0.3,0-0.5-0.1-0.7-0.3s-0.4-0.5-0.6-0.8s-0.3-0.8-0.4-1.2c-0.1-0.5-0.1-1-0.1-1.6c0-1.9,0.5-2.9,1.4-2.9c1.3,0,2,1.3,2,3.8
		C74.9,19,74.8,19.4,74.7,19.8z M90.3,15.7c0-1.2-0.2-2.2-0.5-2.9c-0.3-0.7-0.8-1.3-1.5-1.7s-1.5-0.6-2.6-0.7
		c-1-0.1-2.3-0.2-3.7-0.2c-0.9,0-1.3,0-1.3,0.1l0.1,0.1l0.4,15.5l4.1-0.3v-3.9l2.6,4l3.5-0.5l-3-5.9C89.7,18.2,90.3,17,90.3,15.7z
		 M86.5,15.5c0,0.7-0.5,1.2-1.5,1.4l-0.3-3c0.6,0.1,1,0.2,1.3,0.5s0.5,0.6,0.5,1V15.5z M98.3,21.7v-1.8h3.6v-3.2h-3.8l-0.1-2
		l4.1-0.3v-4h-8.2v15.5h8.6v-4.2H98.3z"/>
	<path fill-rule="evenodd" clip-rule="evenodd" fill="#803707" d="M39.5,7.4c-0.4-1.9-5.5-1.7-7.6-1.7c-2.1,0-2.7,1.6-2.7,1.6
		l-1.1,3.2c0,0-11.6,0.2-15.3,0.2s-3.7,3.6-3.7,4.2c0,0.6,1.9,7.2,2.6,8.8c0.7,1.6,2.3,2.6,2.3,2.6s-0.7,1-1,2.8s1.5,3.8,3.5,3.8
		c2,0,3.7-0.9,4.1-3.1c0.4-2.2-0.6-3.4-0.6-3.4h3.2c-1.6,2.6-0.7,5.4,1.8,6.3s4.9-0.6,5.3-2.8c0.4-2.3-1-3.9-1-3.9s1.1-0.6,1.9-1.2
		c0.8-0.7,3.2-12.6,3.2-12.6s1.4,0.1,2.6-0.3C38.4,11.4,39.8,9.3,39.5,7.4z"/>
	<path fill-rule="evenodd" clip-rule="evenodd" fill="#E3E3E3" d="M36.4,8.2c-1.9,0-5.2,0-5.2,0L29.9,13H13.6c0,0-2.7-0.1-2,2.7
		c1.2,4.5,2.2,7.3,2.2,7.3s0.6,1.1,2,1.1c1.4,0,11,0,11,0s2.4,0.6,3-1.5s3.1-12.8,3.1-12.8h3.4C36.3,9.8,38.3,8.2,36.4,8.2z"/>
	<circle fill-rule="evenodd" clip-rule="evenodd" fill="#E3E3E3" cx="17" cy="28.9" r="1.7"/>
	<circle fill-rule="evenodd" clip-rule="evenodd" fill="#E3E3E3" cx="26.6" cy="28.9" r="1.7"/>
</g>
</svg>
