<?xml version="1.0" encoding="utf-8"?>
<!-- Generator: Adobe Illustrator 16.0.0, SVG Export Plug-In . SVG Version: 6.00 Build 0)  -->
<!DOCTYPE svg PUBLIC "-//W3C//DTD SVG 1.1//EN" "http://www.w3.org/Graphics/SVG/1.1/DTD/svg11.dtd">
<svg version="1.1" id="Layer_1" xmlns="http://www.w3.org/2000/svg" xmlns:xlink="http://www.w3.org/1999/xlink" x="0px" y="0px"
	 width="37.6px" height="485.2px" viewBox="0 0 37.6 485.2" enable-background="new 0 0 37.6 485.2" xml:space="preserve">
<g>
	<path fill-rule="evenodd" clip-rule="evenodd" fill="#4C350D" d="M26.5,0H11.1C5,0,0,7,0,15.6v456.1c0,8.7,5,13.4,11.1,13.4h15.4
		c6.1,0,11.1-4.8,11.1-13.4V15.6C37.6,7,32.7,0,26.5,0z"/>
	<polygon fill-rule="evenodd" clip-rule="evenodd" fill="#FEB22E" points="35.1,461.6 35.1,20.9 2.6,21.3 2.6,461.6 	"/>
	<path fill-rule="evenodd" clip-rule="evenodd" fill="#DA8308" d="M2.6,258.5v12.9h32.5v-12.9H2.6z M2.6,462.2h32.5V286.6H2.6V462.2
		z"/>
	<rect x="7" y="26.7" fill-rule="evenodd" clip-rule="evenodd" fill="#FFE39D" width="23.6" height="429.2"/>
	<rect x="9.4" y="29.7" fill-rule="evenodd" clip-rule="evenodd" fill="#4C350D" width="18.9" height="423.2"/>
	<path fill-rule="evenodd" clip-rule="evenodd" fill="#FFECCC" d="M25.9,2.8H11.8c-5.1,0-9.2,4.7-9.2,10.4v5.5h32.4v-5.5
		C35.1,7.4,31,2.8,25.9,2.8z"/>
	<path fill-rule="evenodd" clip-rule="evenodd" fill="#FFECCC" d="M2.6,470.7c0,5.8,4.1,10.4,9.2,10.4h14.1c5.1,0,9.2-4.7,9.2-10.4
		v-5.5H2.6V470.7z"/>
	<polygon fill-rule="evenodd" clip-rule="evenodd" fill="#4C350D" points="12.9,468.9 19.2,478.4 25.8,468.9 	"/>
	<polygon fill-rule="evenodd" clip-rule="evenodd" fill="#4C350D" points="19.2,6 12.9,15.4 25.8,15.4 	"/>
</g>
</svg>
